<?xml version="1.0" encoding="UTF-8" standalone="no"?>
<svg
   width="64.286011mm"
   height="24.315777mm"
   viewBox="0 0 64.286009 24.315776"
   version="1.1"
   id="svg8"
   inkscape:version="1.1.2 (0a00cf5339, 2022-02-04, custom)"
   sodipodi:docname="runner_logo_documentation.svg"
   inkscape:export-filename="/home/kalm/dcmnts/uni/promotion/src/runnerase/docs/assets/images/runner_logo_documentation.png"
   inkscape:export-xdpi="96.000008"
   inkscape:export-ydpi="96.000008"
   xmlns:inkscape="http://www.inkscape.org/namespaces/inkscape"
   xmlns:sodipodi="http://sodipodi.sourceforge.net/DTD/sodipodi-0.dtd"
   xmlns="http://www.w3.org/2000/svg"
   xmlns:svg="http://www.w3.org/2000/svg"
   xmlns:rdf="http://www.w3.org/1999/02/22-rdf-syntax-ns#"
   xmlns:cc="http://creativecommons.org/ns#"
   xmlns:dc="http://purl.org/dc/elements/1.1/">
  <defs
     id="defs2" />
  <sodipodi:namedview
     id="base"
     pagecolor="#ffffff"
     bordercolor="#666666"
     borderopacity="1.0"
     inkscape:pageopacity="0.0"
     inkscape:pageshadow="2"
     inkscape:zoom="2.8"
     inkscape:cx="130.17857"
     inkscape:cy="83.928571"
     inkscape:document-units="mm"
     inkscape:current-layer="layer1"
     inkscape:document-rotation="0"
     showgrid="false"
     inkscape:window-width="1920"
     inkscape:window-height="1015"
     inkscape:window-x="0"
     inkscape:window-y="0"
     inkscape:window-maximized="1"
     inkscape:pagecheckerboard="0" />
  <metadata
     id="metadata5">
    <rdf:RDF>
      <cc:Work
         rdf:about="">
        <dc:format>image/svg+xml</dc:format>
        <dc:type
           rdf:resource="http://purl.org/dc/dcmitype/StillImage" />
        <dc:title />
      </cc:Work>
    </rdf:RDF>
  </metadata>
  <g
     inkscape:label="Layer 1"
     inkscape:groupmode="layer"
     id="layer1"
     transform="translate(-176.30855,-144.25249)">
    <text
       xml:space="preserve"
       style="font-size:15.6986px;line-height:1.25;font-family:'Liberation Serif';-inkscape-font-specification:'Liberation Serif';letter-spacing:0px;word-spacing:0px;stroke-width:0.264583"
       x="180.06683"
       y="156.32999"
       id="text866"><tspan
         sodipodi:role="line"
         id="tspan864"
         x="180.06683"
         y="156.32999"
         style="font-style:normal;font-variant:normal;font-weight:normal;font-stretch:normal;font-size:15.6986px;font-family:'Oswald Regular';-inkscape-font-specification:'Oswald Regular, ';fill:#ffffff;stroke-width:0.264583">runnerase</tspan></text>
    <text
       xml:space="preserve"
       style="font-size:10.5833px;line-height:1.25;font-family:'Liberation Serif';-inkscape-font-specification:'Liberation Serif';letter-spacing:0px;word-spacing:0px;stroke-width:0.264583"
       x="178.9285"
       y="167.07312"
       id="text866-3"><tspan
         sodipodi:role="line"
         id="tspan864-6"
         x="178.9285"
         y="167.07312"
         style="font-style:normal;font-variant:normal;font-weight:normal;font-stretch:normal;font-family:'Oswald Regular';-inkscape-font-specification:'Oswald Regular, ';fill:#b3b3b3;stroke-width:0.264583">Documentation</tspan></text>
  </g>
</svg>
